…
> **Make a time series plot (i.e. type = "l") of the 5-minute interval
> (x-axis) and the average number of steps taken, averaged across all
> days (y-axis)**

Computing the mean for interval times, averaging across all days 


```r
mn1 <- df %>% group_by(interval) %>%
    summarize(num.of.steps.per.interval=mean(steps))
mn1
```

```
## # A tibble: 288 x 2
##    interval num.of.steps.per.interval
##       <int>                     <dbl>
##  1        0                    1.72  
##  2        5                    0.340 
##  3       10                    0.132 
##  4       15                    0.151 
##  5       20                    0.0755
##  6       25                    2.09  
##  7       30                    0.528 
##  8       35                    0.868 
##  9       40                    0     
## 10       45                    1.47  
## # … with 278 more rows
```
…
```r
df <- df.original

mn2 <- df %>% group_by(interval) %>% mutate(mean.across.days=mean(steps,na.rm=TRUE))
na.row <- which(is.na(mn2$steps),arr.ind=TRUE)
mn2$steps.imputed <- mn2$steps
mn2$steps.imputed[na.row] <- mn2$mean.across.days[na.row]
mn2
```

```
## # A tibble: 17,568 x 5
## # Groups:   interval [288]
##    steps date       interval mean.across.days steps.imputed
##    <int> <fct>         <int>            <dbl>         <dbl>
##  1    NA 2012-10-01        0           1.72          1.72  
##  2    NA 2012-10-01        5           0.340         0.340 
##  3    NA 2012-10-01       10           0.132         0.132 
##  4    NA 2012-10-01       15           0.151         0.151 
##  5    NA 2012-10-01       20           0.0755        0.0755
##  6    NA 2012-10-01       25           2.09          2.09  
##  7    NA 2012-10-01       30           0.528         0.528 
##  8    NA 2012-10-01       35           0.868         0.868 
##  9    NA 2012-10-01       40           0             0     
## 10    NA 2012-10-01       45           1.47          1.47  
## # … with 17,558 more rows
```
…
```r
df <- mn2 # inherting the imputation
df$daynum <- as.POSIXlt(as.character(df$date))$wday 
df$daytype <- df$daynum
df$daytype[df$daynum %in% c(0,6)] <- "wkend"
df$daytype[!df$daynum %in% c(0,6)] <- "wkday"
df$daytype <- as.factor(df$daytype)
df[sample(1:nrow(df),size=100),]
```

```
## # A tibble: 100 x 7
## # Groups:   interval [86]
##    steps date       interval mean.across.days steps.imputed daynum daytype
##    <int> <fct>         <int>            <dbl>         <dbl>  <int> <fct>  
##  1     0 2012-11-08     2335             4.70             0      4 wkday  
##  2     0 2012-10-02      410             2.57             0      2 wkday  
##  3     0 2012-11-27      155             0                0      2 wkday  
##  4     0 2012-11-23      935            45.2              0      5 wkday  
##  5     0 2012-10-30     2135            16.3              0      2 wkday  
##  6    60 2012-11-25     1505            36.1             60      0 wkend  
##  7     0 2012-10-02     1940            30.2              0      2 wkday  
##  8     0 2012-10-04      300             0                0      4 wkday  
##  9     0 2012-10-23     1410            43.6              0      2 wkday  
## 10     0 2012-10-12     1050            25.1              0      5 wkday  
## # … with 90 more rows
```
…
